{
    "name": "QA",
    "fields": [
        {"name": "Model"},
        {"name": "Hint"},
        {"name": "Question"},
        {"name": "Front"},
        {"name": "Back"}
    ],
    "templates": [
        {
            "name": "QA",
            "qfmt": "{{Front}}",
            "afmt": "{{Back}}"
        }
    ],
    "css": ".card {\nfont-family: arial;\nfont-size: 20px;\ntext-align: center;\n}\n\n.cloze {\ncolor: blue;\n}\n.nightMode .cloze {\ncolor: lightblue;\n}",
    "model_id": 1650739699158636
}
