{
    "data": [
        [
            {
                "guid": "MuxSyy}iA@",
                "model": "Cloze"
            },
            "1 = {{c1::2^0::2^n}}"
        ],
        [
            {
                "guid": "l6Tcq/.HVr",
                "model": "Cloze"
            },
            "1.01^10 = {{c1::1.1}}"
        ],
        [
            {
                "guid": "ppo80j/dTE",
                "model": "Cloze"
            },
            "1.01^20 = {{c1::1.2}}"
        ],
        [
            {
                "guid": "w`L@&/{%jg",
                "model": "Cloze"
            },
            "1.01^30 = {{c1::1.3}}"
        ],
        [
            {
                "guid": "q3aq(mBg^_",
                "model": "Cloze"
            },
            "1.02^10 = {{c1::1.2}}"
        ],
        [
            {
                "guid": "rprhg{]uU$",
                "model": "Cloze"
            },
            "1.02^20 = {{c1::1.5}}"
        ],
        [
            {
                "guid": "i|#FZ0Ci<F",
                "model": "Cloze"
            },
            "1.02^30 = {{c1::1.8}}"
        ],
        [
            {
                "guid": "k-g>IsbbS9",
                "model": "Cloze"
            },
            "1.03^10 = {{c1::1.3}}"
        ],
        [
            {
                "guid": "ly;ulO+u}{",
                "model": "Cloze"
            },
            "1.03^20 = {{c1::1.8}}"
        ],
        [
            {
                "guid": "Q@]ya_N!lC",
                "model": "Cloze"
            },
            "1.03^30 = {{c1::2.4}}"
        ],
        [
            {
                "guid": "eJ$N&jjdIQ",
                "model": "Cloze"
            },
            "1.04^10 = {{c1::1.5}}"
        ],
        [
            {
                "guid": "wN+SwWOp3l",
                "model": "Cloze"
            },
            "1.04^20 = {{c1::2.2}}"
        ],
        [
            {
                "guid": "br#BUnvRZ<",
                "model": "Cloze"
            },
            "1.04^30 = {{c1::3.2}}"
        ],
        [
            {
                "guid": "Gs58Zo#W%<",
                "model": "Cloze"
            },
            "1.05^10 = {{c1::1.6}}"
        ],
        [
            {
                "guid": "l*7{Ry*1x;",
                "model": "Cloze"
            },
            "1.05^20 = {{c1::2.7}}"
        ],
        [
            {
                "guid": "hc3F~W5k&f",
                "model": "Cloze"
            },
            "1.05^30 = {{c1::4.3}}"
        ],
        [
            {
                "guid": "h3=#5oNx!U",
                "model": "Cloze"
            },
            "1.06^10 = {{c1::1.8}}"
        ],
        [
            {
                "guid": "Fa~T7Fgn)`",
                "model": "Cloze"
            },
            "1.06^20 = {{c1::3.2}}"
        ],
        [
            {
                "guid": "ysy$y)VIj!",
                "model": "Cloze"
            },
            "1.06^30 = {{c1::5.7}}"
        ],
        [
            {
                "guid": "J}J;Os3[jC",
                "model": "Cloze"
            },
            "1.07^10 = {{c1::2.0}}"
        ],
        [
            {
                "guid": "bGSU;;n5F@",
                "model": "Cloze"
            },
            "1.07^20 = {{c1::3.9}}"
        ],
        [
            {
                "guid": "Il4iRAs:<#",
                "model": "Cloze"
            },
            "1.07^30 = {{c1::7.6}}"
        ],
        [
            {
                "guid": "B[nm)ing76",
                "model": "Cloze"
            },
            "1.08^10 = {{c1::2.2}}"
        ],
        [
            {
                "guid": "il0iSaP>.4",
                "model": "Cloze"
            },
            "1.08^20 = {{c1::4.7}}"
        ],
        [
            {
                "guid": "nJ_g4ynah}",
                "model": "Cloze"
            },
            "1.08^30 = {{c1::10.1}}"
        ],
        [
            {
                "guid": "wMm88)sEiS",
                "model": "Cloze"
            },
            "1.09^10 = {{c1::2.4}}"
        ],
        [
            {
                "guid": "j;3J1ekXWd",
                "model": "Cloze"
            },
            "1.09^20 = {{c1::5.6}}"
        ],
        [
            {
                "guid": "z&b&Oc8^dh",
                "model": "Cloze"
            },
            "1.09^30 = {{c1::13.3}}"
        ],
        [
            {
                "guid": "B<C5G}yL{*",
                "model": "Cloze"
            },
            "1.10^10 = {{c1::2.6}}"
        ],
        [
            {
                "guid": "BW%!ll{K90",
                "model": "Cloze"
            },
            "1.10^20 = {{c1::6.7}}"
        ],
        [
            {
                "guid": "JE(9WuOH-~",
                "model": "Cloze"
            },
            "1.10^30 = {{c1::17.4}}"
        ],
        [
            {
                "guid": "x(@.Yo9]|$",
                "model": "Cloze"
            },
            "1.11^10 = {{c1::2.8}}"
        ],
        [
            {
                "guid": "F|R{tmT]LQ",
                "model": "Cloze"
            },
            "1.11^20 = {{c1::8.1}}"
        ],
        [
            {
                "guid": "e.L+E{<q=&",
                "model": "Cloze"
            },
            "1.11^30 = {{c1::22.9}}"
        ],
        [
            {
                "guid": "n5_5x|>8{?",
                "model": "Cloze"
            },
            "1.12^10 = {{c1::3.1}}"
        ],
        [
            {
                "guid": "QY+AWn(!W/",
                "model": "Cloze"
            },
            "1.12^20 = {{c1::9.6}}"
        ],
        [
            {
                "guid": "s_m_>D?1|o",
                "model": "Cloze"
            },
            "1.12^30 = {{c1::30.0}}"
        ],
        [
            {
                "guid": "bq{_2Z4{js",
                "model": "Cloze"
            },
            "1.13^10 = {{c1::3.4}}"
        ],
        [
            {
                "guid": "jLk/-RJ+*s",
                "model": "Cloze"
            },
            "1.13^20 = {{c1::11.5}}"
        ],
        [
            {
                "guid": "g=W.DUHhRf",
                "model": "Cloze"
            },
            "1.13^30 = {{c1::39.1}}"
        ],
        [
            {
                "guid": "Iqv(Da{jD[",
                "model": "Cloze"
            },
            "1.14^10 = {{c1::3.7}}"
        ],
        [
            {
                "guid": "C&/v4.tRFc",
                "model": "Cloze"
            },
            "1.14^20 = {{c1::13.7}}"
        ],
        [
            {
                "guid": "qm5<Sg-L8O",
                "model": "Cloze"
            },
            "1.14^30 = {{c1::51.0}}"
        ],
        [
            {
                "guid": "MRc<W|m5bL",
                "model": "Cloze"
            },
            "1.15^10 = {{c1::4.0}}"
        ],
        [
            {
                "guid": "o$na`tMD]e",
                "model": "Cloze"
            },
            "1.15^20 = {{c1::16.4}}"
        ],
        [
            {
                "guid": "x[~2gK9)pW",
                "model": "Cloze"
            },
            "1.15^30 = {{c1::66.2}}"
        ],
        [
            {
                "guid": "Ny+_rH:*#a",
                "model": "Cloze"
            },
            "1024 = {{c1::2^10::2^n}}"
        ],
        [
            {
                "guid": "Q+sw[sNJT5",
                "model": "Cloze"
            },
            "128 = {{c1::2^7::2^n}}"
        ],
        [
            {
                "guid": "E#ArjWww^b",
                "model": "Cloze"
            },
            "16 = {{c1::2^4::2^n}}"
        ],
        [
            {
                "guid": "L9VU,?g[-P",
                "model": "Cloze"
            },
            "16384 = {{c1::2^14::2^n}}"
        ],
        [
            {
                "guid": "l2wlAvQ>ai",
                "model": "Cloze"
            },
            "2 = {{c1::2^1::2^n}}"
        ],
        [
            {
                "guid": "96fjFB|oF",
                "model": "Cloze"
            },
            "2048 = {{c1::2^11::2^n}}"
        ],
        [
            {
                "guid": "Ds36/m*|&0",
                "model": "Cloze"
            },
            "256 = {{c1::2^8::2^n}}"
        ],
        [
            {
                "guid": "H`C+s?4lv=",
                "model": "Cloze"
            },
            "2^0 = {{c1::1}}"
        ],
        [
            {
                "guid": "Bw6(}9[b(n",
                "model": "Cloze"
            },
            "2^1 = {{c1::2}}"
        ],
        [
            {
                "guid": "z__zD:NkVk",
                "model": "Cloze"
            },
            "2^10 = {{c1::1024}}"
        ],
        [
            {
                "guid": "k3GHYz!,ji",
                "model": "Cloze"
            },
            "2^11 = {{c1::2048}}"
        ],
        [
            {
                "guid": "pc^#A,2^sC",
                "model": "Cloze"
            },
            "2^12 = {{c1::4096}}"
        ],
        [
            {
                "guid": "b}p$VoEIlR",
                "model": "Cloze"
            },
            "2^13 = {{c1::8192}}"
        ],
        [
            {
                "guid": "w|@cd{Vi`*",
                "model": "Cloze"
            },
            "2^14 = {{c1::16384}}"
        ],
        [
            {
                "guid": "IXtm~p}%j/",
                "model": "Cloze"
            },
            "2^15 = {{c1::32768}}"
        ],
        [
            {
                "guid": "HFbYt,k6IY",
                "model": "Cloze"
            },
            "2^16 = {{c1::65536}}"
        ],
        [
            {
                "guid": "P#`}bw30D@",
                "model": "Cloze"
            },
            "2^2 = {{c1::4}}"
        ],
        [
            {
                "guid": "O%uCpIg~Z3",
                "model": "Cloze"
            },
            "2^3 = {{c1::8}}"
        ],
        [
            {
                "guid": "h[#Pc09A!8",
                "model": "Cloze"
            },
            "2^4 = {{c1::16}}"
        ],
        [
            {
                "guid": "l}|Aba?)?Q",
                "model": "Cloze"
            },
            "2^5 = {{c1::32}}"
        ],
        [
            {
                "guid": "r=EuO}%kdg",
                "model": "Cloze"
            },
            "2^6 = {{c1::64}}"
        ],
        [
            {
                "guid": "M<85hb!Z}L",
                "model": "Cloze"
            },
            "2^7 = {{c1::128}}"
        ],
        [
            {
                "guid": "tj1.LKc,|[",
                "model": "Cloze"
            },
            "2^8 = {{c1::256}}"
        ],
        [
            {
                "guid": "D1RJ5[0nvo",
                "model": "Cloze"
            },
            "2^9 = {{c1::512}}"
        ],
        [
            {
                "guid": "v[2Z>kX!]|",
                "model": "Cloze"
            },
            "32 = {{c1::2^5::2^n}}"
        ],
        [
            {
                "guid": "IV[V.i~E<j",
                "model": "Cloze"
            },
            "32768 = {{c1::2^15::2^n}}"
        ],
        [
            {
                "guid": "npt{~~>H;1",
                "model": "Cloze"
            },
            "4 = {{c1::2^2::2^n}}"
        ],
        [
            {
                "guid": "zUmNVi[q8)",
                "model": "Cloze"
            },
            "4096 = {{c1::2^12::2^n}}"
        ],
        [
            {
                "guid": "cnLL72uI_t",
                "model": "Cloze"
            },
            "512 = {{c1::2^9::2^n}}"
        ],
        [
            {
                "guid": "HW(4:7<!qj",
                "model": "Cloze"
            },
            "64 = {{c1::2^6::2^n}}"
        ],
        [
            {
                "guid": "Bc2m5E8pwI",
                "model": "Cloze"
            },
            "65536 = {{c1::2^16::2^n}}"
        ],
        [
            {
                "guid": "PTwS>?-EE>",
                "model": "Cloze"
            },
            "8 = {{c1::2^3::2^n}}"
        ],
        [
            {
                "guid": "i@{:8^9/Pw",
                "model": "Cloze"
            },
            "8192 = {{c1::2^13::2^n}}"
        ]
    ],
    "deck_id": 1656012237981944,
    "hash": "3700d4ac9a699cfef8012dd4b3eb5abeb06b09db",
    "hint": "Maths",
    "name": "All::Maths::Exponentials_and_Powers"
}