{
    "data": [
        [
            {
                "guid": "D_:Pp_k9tu",
                "model": "QA"
            },
            "I",
            [
                "yo"
            ]
        ],
        [
            {
                "guid": "u`-7GK8d;V",
                "model": "QA"
            },
            "all",
            [
                "todo",
                "todos"
            ]
        ],
        [
            {
                "guid": "rHAd[9ta|E",
                "model": "QA"
            },
            "another",
            [
                "otro"
            ]
        ],
        [
            {
                "guid": "Jk5AA7qk};",
                "model": "QA"
            },
            "any (negation)",
            [
                "ninguno"
            ]
        ],
        [
            {
                "guid": "g&pC*i3PYh",
                "model": "QA"
            },
            "anyone",
            [
                "alguien",
                "cualquiera"
            ]
        ],
        [
            {
                "guid": "bGJw}wucn_",
                "model": "QA"
            },
            "anyone (negation)",
            [
                "nadie"
            ]
        ],
        [
            {
                "guid": "bCeSR48e<e",
                "model": "QA"
            },
            "each",
            [
                "cada",
                "todo",
                "todos"
            ]
        ],
        [
            {
                "guid": "I8k|L-.GZs",
                "model": "QA"
            },
            "every",
            [
                "cada",
                "todo",
                "todos"
            ]
        ],
        [
            {
                "guid": "xMYO_:q>Y^",
                "model": "QA"
            },
            "everybody",
            [
                "todo el mundo",
                "todos"
            ]
        ],
        [
            {
                "guid": "i8w#Ab6y}?",
                "model": "QA"
            },
            "everyone",
            [
                "todo el mundo",
                "todos"
            ]
        ],
        [
            {
                "guid": "gM3VX$MeO]",
                "model": "QA"
            },
            "few",
            [
                "pocos"
            ]
        ],
        [
            {
                "guid": "dDyTtvf#e2",
                "model": "QA"
            },
            "he",
            [
                "\u00e9l"
            ]
        ],
        [
            {
                "guid": "mQ%(K_hJ*B",
                "model": "QA"
            },
            "her",
            [
                "ella",
                "la",
                "le",
                "su"
            ]
        ],
        [
            {
                "guid": "yIaZR6i3t<",
                "model": "QA"
            },
            "hers",
            [
                "suya"
            ]
        ],
        [
            {
                "guid": "yM:q`Xz#2G",
                "model": "QA"
            },
            "herself",
            [
                "se",
                "s\u00ed misma"
            ]
        ],
        [
            {
                "guid": "f$Drqz6,)4",
                "model": "QA"
            },
            "him",
            [
                "le",
                "lo",
                "\u00e9l"
            ]
        ],
        [
            {
                "guid": "y`@!3pz0#S",
                "model": "QA"
            },
            "himself",
            [
                "se",
                "s\u00ed mismo"
            ]
        ],
        [
            {
                "guid": "EKL1i2,~UN",
                "model": "QA"
            },
            "his",
            [
                "su",
                "suyo"
            ]
        ],
        [
            {
                "guid": "nc,ej>L.]a",
                "model": "QA"
            },
            "many",
            [
                "muchos"
            ]
        ],
        [
            {
                "guid": "qktS|M3n&+",
                "model": "QA"
            },
            "mine",
            [
                "m\u00edo"
            ]
        ],
        [
            {
                "guid": "hX&}/t+%eS",
                "model": "QA"
            },
            "my",
            [
                "m\u00ed"
            ]
        ],
        [
            {
                "guid": "G^Dx@7V2D3",
                "model": "QA"
            },
            "myself",
            [
                "me",
                "mi",
                "yo mismo"
            ]
        ],
        [
            {
                "guid": "i=%tAC;k0)",
                "model": "QA"
            },
            "neither",
            [
                "ninguno",
                "tampoco"
            ]
        ],
        [
            {
                "guid": "gj`c@4jgpd",
                "model": "QA"
            },
            "nobody",
            [
                "nadie"
            ]
        ],
        [
            {
                "guid": "GYOXE#]K|9",
                "model": "QA"
            },
            "none",
            [
                "ninguno"
            ]
        ],
        [
            {
                "guid": "G+Be-$L|iW",
                "model": "QA"
            },
            "one",
            [
                "alguno",
                "uno"
            ]
        ],
        [
            {
                "guid": "b:fMb0<rgB",
                "model": "QA"
            },
            "other",
            [
                "otro"
            ]
        ],
        [
            {
                "guid": "G+nRPW}cYY",
                "model": "QA"
            },
            "others",
            [
                "otros"
            ]
        ],
        [
            {
                "guid": "ry21-^Zkxl",
                "model": "QA"
            },
            "our",
            [
                "nuestro"
            ]
        ],
        [
            {
                "guid": "cd0+P,!7cA",
                "model": "QA"
            },
            "ours",
            [
                "nuestro"
            ]
        ],
        [
            {
                "guid": "DKQw<3K;y1",
                "model": "QA"
            },
            "ourselves",
            [
                "nosotros mismos"
            ]
        ],
        [
            {
                "guid": "irLGU1aQ@a",
                "model": "QA"
            },
            "she",
            [
                "ella"
            ]
        ],
        [
            {
                "guid": "pOX4*CqSO:",
                "model": "QA"
            },
            "some",
            [
                "algunos",
                "unos",
                "unos pocos"
            ]
        ],
        [
            {
                "guid": "o29`^tq~YU",
                "model": "QA"
            },
            "someone",
            [
                "alguien"
            ]
        ],
        [
            {
                "guid": "JZ]QGEd{!W",
                "model": "QA"
            },
            "that",
            [
                "aqu\u00e9l",
                "ese"
            ]
        ],
        [
            {
                "guid": "I/wUZeAucc",
                "model": "QA"
            },
            "their",
            [
                "su"
            ]
        ],
        [
            {
                "guid": "C-w?ih3/t.",
                "model": "QA"
            },
            "theirs",
            [
                "suyo"
            ]
        ],
        [
            {
                "guid": "P@!7Pkm9n>",
                "model": "QA"
            },
            "themselves",
            [
                "ellos mismos",
                "se",
                "s\u00ed  mismos"
            ]
        ],
        [
            {
                "guid": "K%E,L!EFef",
                "model": "QA"
            },
            "these",
            [
                "estos"
            ]
        ],
        [
            {
                "guid": "Njo*8RVos:",
                "model": "QA"
            },
            "they",
            [
                "ellos"
            ]
        ],
        [
            {
                "guid": "l-E+;O$+RV",
                "model": "QA"
            },
            "this",
            [
                "este"
            ]
        ],
        [
            {
                "guid": "K*c9pMbyfC",
                "model": "QA"
            },
            "those",
            [
                "aqu\u00e9llos",
                "esos"
            ]
        ],
        [
            {
                "guid": "c2Av.M*sd:",
                "model": "QA"
            },
            "we",
            [
                "nosotros"
            ]
        ],
        [
            {
                "guid": "k3Nb[?BsRq",
                "model": "QA"
            },
            "which",
            [
                "cual",
                "cuales",
                "cuyo",
                "que"
            ]
        ],
        [
            {
                "guid": "mQPt|.QAqZ",
                "model": "QA"
            },
            "which one",
            [
                "cu\u00e1l"
            ]
        ],
        [
            {
                "guid": "HOs;A/?XRt",
                "model": "QA"
            },
            "which ones",
            [
                "cu\u00e1les"
            ]
        ],
        [
            {
                "guid": "h=f]E`3_B{",
                "model": "QA"
            },
            "who",
            [
                "que",
                "qui\u00e9n"
            ]
        ],
        [
            {
                "guid": "jH+[v<I/CB",
                "model": "QA"
            },
            "whom",
            [
                "que",
                "qui\u00e9n"
            ]
        ],
        [
            {
                "guid": "m-m&sY>T0.",
                "model": "QA"
            },
            "whose",
            [
                "cuyo"
            ]
        ],
        [
            {
                "guid": "E98zn8WpQ~",
                "model": "QA"
            },
            "with her",
            [
                "con ella",
                "consigo"
            ]
        ],
        [
            {
                "guid": "G(=P+eG>AS",
                "model": "QA"
            },
            "with him",
            [
                "con el",
                "consigo"
            ]
        ],
        [
            {
                "guid": "ne1Og/7`VX",
                "model": "QA"
            },
            "with me",
            [
                "conmigo"
            ]
        ],
        [
            {
                "guid": "C11nNd(q%3",
                "model": "QA"
            },
            "with you",
            [
                "contigo"
            ]
        ],
        [
            {
                "guid": "QbX3CwCLOc",
                "model": "QA"
            },
            "you (plural)",
            [
                "ustedes",
                "vosotros"
            ]
        ],
        [
            {
                "guid": "t?sCVSnXC|",
                "model": "QA"
            },
            "you (singular)",
            [
                "t\u00fa",
                "usted"
            ]
        ],
        [
            {
                "guid": "dT,6R[wj>n",
                "model": "QA"
            },
            "your (plural)",
            [
                "vuestro"
            ]
        ],
        [
            {
                "guid": "oHxHsb}E>(",
                "model": "QA"
            },
            "your (plural; formal)",
            [
                "su"
            ]
        ],
        [
            {
                "guid": "F)YLp@D)Do",
                "model": "QA"
            },
            "your (singular)",
            [
                "tu"
            ]
        ],
        [
            {
                "guid": "Nj``edJ$uy",
                "model": "QA"
            },
            "your (singular; formal)",
            [
                "su"
            ]
        ],
        [
            {
                "guid": "z3$Hb(o5#x",
                "model": "QA"
            },
            "yours (singular)",
            [
                "tuyo"
            ]
        ],
        [
            {
                "guid": "cj0c|mbqSE",
                "model": "QA"
            },
            "yours (singular; formal)",
            [
                "suyo"
            ]
        ],
        [
            {
                "guid": "Q??E{^9+I(",
                "model": "QA"
            },
            "yourself",
            [
                "se",
                "s\u00ed",
                "s\u00ed mismo",
                "te",
                "ti",
                "tu  mismo",
                "usted mismo"
            ]
        ],
        [
            {
                "guid": "q4&QSaBk^y",
                "model": "QA"
            },
            "yourselves",
            [
                "os",
                "os mismos",
                "s\u00ed",
                "s\u00ed mismos",
                "ustedes mismos",
                "vosotros",
                "vosotros mismos"
            ]
        ]
    ],
    "deck_id": 210814220232462116,
    "hash": "32f757b8a72e6daa6430c73ac4b7e996ca70018b",
    "hint": "Spanish",
    "name": "All::Spanish::Pronouns"
}