{
    "data": [
        [
            {
                "guid": "pKSuVgI/s)",
                "model": "Cloze"
            },
            "amar<hr>{{c1::amado::Participio Pasado}}"
        ],
        [
            {
                "guid": "iE(%PZ=x!u",
                "model": "Cloze"
            },
            "deber<hr>{{c1::debido::Participio Pasado}}"
        ],
        [
            {
                "guid": "K2G}?l`2IP",
                "model": "Cloze"
            },
            "estar<hr>{{c1::estado::Participio Pasado}}"
        ],
        [
            {
                "guid": "EpfVR-Ydq$",
                "model": "Cloze"
            },
            "hacer<hr>{{c1::hecho::Participio Pasado}}"
        ],
        [
            {
                "guid": "ok$j-xH/`u",
                "model": "Cloze"
            },
            "ir<hr>{{c1::ido::Participio Pasado}}"
        ],
        [
            {
                "guid": "uecHn&}}hi",
                "model": "Cloze"
            },
            "necesitar<hr>{{c1::necesitado::Participio Pasado}}"
        ],
        [
            {
                "guid": "G`Les8FGYj",
                "model": "Cloze"
            },
            "poder<hr>{{c1::podido::Participio Pasado}}"
        ],
        [
            {
                "guid": "pY+Y/{Z$tu",
                "model": "Cloze"
            },
            "querer<hr>{{c1::querido::Participio Pasado}}"
        ],
        [
            {
                "guid": "yHu8H40M0(",
                "model": "Cloze"
            },
            "saber<hr>{{c1::sabido::Participio Pasado}}"
        ],
        [
            {
                "guid": "EzJ1L<}ZZ+",
                "model": "Cloze"
            },
            "ser<hr>{{c1::sido::Participio Pasado}}"
        ],
        [
            {
                "guid": "NSh+W$bb#B",
                "model": "Cloze"
            },
            "tener<hr>{{c1::tenido::Participio Pasado}}"
        ],
        [
            {
                "guid": "e0c8nfVuqR",
                "model": "Cloze"
            },
            "vivir<hr>{{c1::vivido::Participio Pasado}}"
        ]
    ],
    "deck_id": 211014215811830423,
    "hash": "fcb934ac14a8f175512a4f46bac634344bbf0112",
    "hint": "Spanish",
    "name": "All::Spanish::Verbs::Participio Pasado"
}