{
    "data": [
        [
            {
                "guid": "1D#{QzHk?",
                "model": "Cloze"
            },
            "Indicativo Futuro<hr>ellos/ellas/Uds. {{c1::amar\u00e1n::amar}}"
        ],
        [
            {
                "guid": "OyW6!13Q8m",
                "model": "Cloze"
            },
            "Indicativo Futuro<hr>ellos/ellas/Uds. {{c1::deber\u00e1n::deber}}"
        ],
        [
            {
                "guid": "j2UTqZb0}k",
                "model": "Cloze"
            },
            "Indicativo Futuro<hr>ellos/ellas/Uds. {{c1::estar\u00e1n::estar}}"
        ],
        [
            {
                "guid": "g{($Vkvwze",
                "model": "Cloze"
            },
            "Indicativo Futuro<hr>ellos/ellas/Uds. {{c1::har\u00e1n::hacer}}"
        ],
        [
            {
                "guid": "Pex+bTfe#b",
                "model": "Cloze"
            },
            "Indicativo Futuro<hr>ellos/ellas/Uds. {{c1::ir\u00e1n::ir}}"
        ],
        [
            {
                "guid": "C|8dL!-L?O",
                "model": "Cloze"
            },
            "Indicativo Futuro<hr>ellos/ellas/Uds. {{c1::necesitar\u00e1n::necesitar}}"
        ],
        [
            {
                "guid": "f??ya2QMa!",
                "model": "Cloze"
            },
            "Indicativo Futuro<hr>ellos/ellas/Uds. {{c1::podr\u00e1n::poder}}"
        ],
        [
            {
                "guid": "s5T)PqVg(I",
                "model": "Cloze"
            },
            "Indicativo Futuro<hr>ellos/ellas/Uds. {{c1::querr\u00e1n::querer}}"
        ],
        [
            {
                "guid": "I3Ttn%T~.I",
                "model": "Cloze"
            },
            "Indicativo Futuro<hr>ellos/ellas/Uds. {{c1::sabr\u00e1n::saber}}"
        ],
        [
            {
                "guid": "L<L#A*u^Xn",
                "model": "Cloze"
            },
            "Indicativo Futuro<hr>ellos/ellas/Uds. {{c1::ser\u00e1n::ser}}"
        ],
        [
            {
                "guid": "be(-}pt%4|",
                "model": "Cloze"
            },
            "Indicativo Futuro<hr>ellos/ellas/Uds. {{c1::tendr\u00e1n::tener}}"
        ],
        [
            {
                "guid": "Hr5-{U3g1+",
                "model": "Cloze"
            },
            "Indicativo Futuro<hr>ellos/ellas/Uds. {{c1::vivir\u00e1n::vivir}}"
        ],
        [
            {
                "guid": "FEJNjT(g,K",
                "model": "Cloze"
            },
            "Indicativo Futuro<hr>nosotros {{c1::amaremos::amar}}"
        ],
        [
            {
                "guid": "efX;<|R*Ou",
                "model": "Cloze"
            },
            "Indicativo Futuro<hr>nosotros {{c1::deberemos::deber}}"
        ],
        [
            {
                "guid": "qhc}KenfW&",
                "model": "Cloze"
            },
            "Indicativo Futuro<hr>nosotros {{c1::estaremos::estar}}"
        ],
        [
            {
                "guid": "QN8W5AKQ02",
                "model": "Cloze"
            },
            "Indicativo Futuro<hr>nosotros {{c1::haremos::hacer}}"
        ],
        [
            {
                "guid": "jeszhu{0g(",
                "model": "Cloze"
            },
            "Indicativo Futuro<hr>nosotros {{c1::iremos::ir}}"
        ],
        [
            {
                "guid": "quKA`}Ns_K",
                "model": "Cloze"
            },
            "Indicativo Futuro<hr>nosotros {{c1::necesitaremos::necesitar}}"
        ],
        [
            {
                "guid": "d}O-&-!*_7",
                "model": "Cloze"
            },
            "Indicativo Futuro<hr>nosotros {{c1::podremos::poder}}"
        ],
        [
            {
                "guid": "IMFui628%P",
                "model": "Cloze"
            },
            "Indicativo Futuro<hr>nosotros {{c1::querremos::querer}}"
        ],
        [
            {
                "guid": "gO&eHA-:aY",
                "model": "Cloze"
            },
            "Indicativo Futuro<hr>nosotros {{c1::sabremos::saber}}"
        ],
        [
            {
                "guid": "l:+>0+IC4z",
                "model": "Cloze"
            },
            "Indicativo Futuro<hr>nosotros {{c1::seremos::ser}}"
        ],
        [
            {
                "guid": "qM4Mzz|eE=",
                "model": "Cloze"
            },
            "Indicativo Futuro<hr>nosotros {{c1::tendremos::tener}}"
        ],
        [
            {
                "guid": "v:8GzVD8Wq",
                "model": "Cloze"
            },
            "Indicativo Futuro<hr>nosotros {{c1::viviremos::vivir}}"
        ],
        [
            {
                "guid": "f>^#FKur,{",
                "model": "Cloze"
            },
            "Indicativo Futuro<hr>t\u00fa {{c1::amar\u00e1s::amar}}"
        ],
        [
            {
                "guid": "u<5wgh<j+=",
                "model": "Cloze"
            },
            "Indicativo Futuro<hr>t\u00fa {{c1::deber\u00e1s::deber}}"
        ],
        [
            {
                "guid": "Buv!{p2crW",
                "model": "Cloze"
            },
            "Indicativo Futuro<hr>t\u00fa {{c1::estar\u00e1s::estar}}"
        ],
        [
            {
                "guid": "jBfn^:Wmx[",
                "model": "Cloze"
            },
            "Indicativo Futuro<hr>t\u00fa {{c1::har\u00e1s::hacer}}"
        ],
        [
            {
                "guid": "ncl]`yHNC5",
                "model": "Cloze"
            },
            "Indicativo Futuro<hr>t\u00fa {{c1::ir\u00e1s::ir}}"
        ],
        [
            {
                "guid": "g^,{AN|-!a",
                "model": "Cloze"
            },
            "Indicativo Futuro<hr>t\u00fa {{c1::necesitar\u00e1s::necesitar}}"
        ],
        [
            {
                "guid": "sMBN&,>GwF",
                "model": "Cloze"
            },
            "Indicativo Futuro<hr>t\u00fa {{c1::podr\u00e1s::poder}}"
        ],
        [
            {
                "guid": "zABu1zAw5/",
                "model": "Cloze"
            },
            "Indicativo Futuro<hr>t\u00fa {{c1::querr\u00e1s::querer}}"
        ],
        [
            {
                "guid": "Q.Rh_;u){<",
                "model": "Cloze"
            },
            "Indicativo Futuro<hr>t\u00fa {{c1::sabr\u00e1s::saber}}"
        ],
        [
            {
                "guid": "PIZ&yQ%#I_",
                "model": "Cloze"
            },
            "Indicativo Futuro<hr>t\u00fa {{c1::ser\u00e1s::ser}}"
        ],
        [
            {
                "guid": "eoE(v3a/5<",
                "model": "Cloze"
            },
            "Indicativo Futuro<hr>t\u00fa {{c1::tendr\u00e1s::tener}}"
        ],
        [
            {
                "guid": "IjLmcN`(*?",
                "model": "Cloze"
            },
            "Indicativo Futuro<hr>t\u00fa {{c1::vivir\u00e1s::vivir}}"
        ],
        [
            {
                "guid": "BqH[-)bJJp",
                "model": "Cloze"
            },
            "Indicativo Futuro<hr>vosotros {{c1::amar\u00e9is::amar}}"
        ],
        [
            {
                "guid": "grEyg7=R9;",
                "model": "Cloze"
            },
            "Indicativo Futuro<hr>vosotros {{c1::deber\u00e9is::deber}}"
        ],
        [
            {
                "guid": "w8q.K(pl6c",
                "model": "Cloze"
            },
            "Indicativo Futuro<hr>vosotros {{c1::estar\u00e9is::estar}}"
        ],
        [
            {
                "guid": "HuI*StjRL=",
                "model": "Cloze"
            },
            "Indicativo Futuro<hr>vosotros {{c1::har\u00e9is::hacer}}"
        ],
        [
            {
                "guid": "e%j`<Ta!Ne",
                "model": "Cloze"
            },
            "Indicativo Futuro<hr>vosotros {{c1::ir\u00e9is::ir}}"
        ],
        [
            {
                "guid": "P8:{@BkNy7",
                "model": "Cloze"
            },
            "Indicativo Futuro<hr>vosotros {{c1::necesitar\u00e9is::necesitar}}"
        ],
        [
            {
                "guid": "d7949u%xIC",
                "model": "Cloze"
            },
            "Indicativo Futuro<hr>vosotros {{c1::podr\u00e9is::poder}}"
        ],
        [
            {
                "guid": "n)qfjl7ByZ",
                "model": "Cloze"
            },
            "Indicativo Futuro<hr>vosotros {{c1::querr\u00e9is::querer}}"
        ],
        [
            {
                "guid": "xrJ1AV:l1:",
                "model": "Cloze"
            },
            "Indicativo Futuro<hr>vosotros {{c1::sabr\u00e9is::saber}}"
        ],
        [
            {
                "guid": "A@6ov~}yU6",
                "model": "Cloze"
            },
            "Indicativo Futuro<hr>vosotros {{c1::ser\u00e9is::ser}}"
        ],
        [
            {
                "guid": "z,]2?uTxpv",
                "model": "Cloze"
            },
            "Indicativo Futuro<hr>vosotros {{c1::tendr\u00e9is::tener}}"
        ],
        [
            {
                "guid": "naE~0%YwxS",
                "model": "Cloze"
            },
            "Indicativo Futuro<hr>vosotros {{c1::vivir\u00e9is::vivir}}"
        ],
        [
            {
                "guid": "bns$]#hbWX",
                "model": "Cloze"
            },
            "Indicativo Futuro<hr>yo {{c1::amar\u00e9::amar}}"
        ],
        [
            {
                "guid": "Jf3JOWl;3m",
                "model": "Cloze"
            },
            "Indicativo Futuro<hr>yo {{c1::deber\u00e9::deber}}"
        ],
        [
            {
                "guid": "Kia!#H:zZ[",
                "model": "Cloze"
            },
            "Indicativo Futuro<hr>yo {{c1::estar\u00e9::estar}}"
        ],
        [
            {
                "guid": "HKH]AAFT4w",
                "model": "Cloze"
            },
            "Indicativo Futuro<hr>yo {{c1::har\u00e9::hacer}}"
        ],
        [
            {
                "guid": "m4xLR#8g1F",
                "model": "Cloze"
            },
            "Indicativo Futuro<hr>yo {{c1::ir\u00e9::ir}}"
        ],
        [
            {
                "guid": "c^8~CvO(?t",
                "model": "Cloze"
            },
            "Indicativo Futuro<hr>yo {{c1::necesitar\u00e9::necesitar}}"
        ],
        [
            {
                "guid": "j3dZe}{+1q",
                "model": "Cloze"
            },
            "Indicativo Futuro<hr>yo {{c1::podr\u00e9::poder}}"
        ],
        [
            {
                "guid": "sZUJ,K`o<A",
                "model": "Cloze"
            },
            "Indicativo Futuro<hr>yo {{c1::querr\u00e9::querer}}"
        ],
        [
            {
                "guid": "f6pv_i47q6",
                "model": "Cloze"
            },
            "Indicativo Futuro<hr>yo {{c1::sabr\u00e9::saber}}"
        ],
        [
            {
                "guid": "Nj}a&yWlZ#",
                "model": "Cloze"
            },
            "Indicativo Futuro<hr>yo {{c1::ser\u00e9::ser}}"
        ],
        [
            {
                "guid": "Q^OI*7J?Ti",
                "model": "Cloze"
            },
            "Indicativo Futuro<hr>yo {{c1::tendr\u00e9::tener}}"
        ],
        [
            {
                "guid": "zdwj&EwM1v",
                "model": "Cloze"
            },
            "Indicativo Futuro<hr>yo {{c1::vivir\u00e9::vivir}}"
        ],
        [
            {
                "guid": "Hzfh8YSZ46",
                "model": "Cloze"
            },
            "Indicativo Futuro<hr>\u00e9l/ella/Ud. {{c1::amar\u00e1::amar}}"
        ],
        [
            {
                "guid": "B!n(_G+k&<",
                "model": "Cloze"
            },
            "Indicativo Futuro<hr>\u00e9l/ella/Ud. {{c1::deber\u00e1::deber}}"
        ],
        [
            {
                "guid": "PSUYEE()xM",
                "model": "Cloze"
            },
            "Indicativo Futuro<hr>\u00e9l/ella/Ud. {{c1::estar\u00e1::estar}}"
        ],
        [
            {
                "guid": "c+P2aAkIYw",
                "model": "Cloze"
            },
            "Indicativo Futuro<hr>\u00e9l/ella/Ud. {{c1::har\u00e1::hacer}}"
        ],
        [
            {
                "guid": "Bc72U.m>TM",
                "model": "Cloze"
            },
            "Indicativo Futuro<hr>\u00e9l/ella/Ud. {{c1::ir\u00e1::ir}}"
        ],
        [
            {
                "guid": "xvS^.dX|V7",
                "model": "Cloze"
            },
            "Indicativo Futuro<hr>\u00e9l/ella/Ud. {{c1::necesitar\u00e1::necesitar}}"
        ],
        [
            {
                "guid": "x|CRKPf#}C",
                "model": "Cloze"
            },
            "Indicativo Futuro<hr>\u00e9l/ella/Ud. {{c1::podr\u00e1::poder}}"
        ],
        [
            {
                "guid": "oSi++KMl/N",
                "model": "Cloze"
            },
            "Indicativo Futuro<hr>\u00e9l/ella/Ud. {{c1::querr\u00e1::querer}}"
        ],
        [
            {
                "guid": "KRZlbOSDMk",
                "model": "Cloze"
            },
            "Indicativo Futuro<hr>\u00e9l/ella/Ud. {{c1::sabr\u00e1::saber}}"
        ],
        [
            {
                "guid": "Ah[w*CP9}.",
                "model": "Cloze"
            },
            "Indicativo Futuro<hr>\u00e9l/ella/Ud. {{c1::ser\u00e1::ser}}"
        ],
        [
            {
                "guid": "le*Lb,}%J8",
                "model": "Cloze"
            },
            "Indicativo Futuro<hr>\u00e9l/ella/Ud. {{c1::tendr\u00e1::tener}}"
        ],
        [
            {
                "guid": "chBkaKN}m5",
                "model": "Cloze"
            },
            "Indicativo Futuro<hr>\u00e9l/ella/Ud. {{c1::vivir\u00e1::vivir}}"
        ]
    ],
    "deck_id": 211014215810602333,
    "hash": "57f24105dc8002003d84097fb37d4160854bcb9f",
    "hint": "Spanish",
    "name": "All::Spanish::Verbs::Indicativo Futuro"
}